{
  "host_ut_banks": {"bank_type": "UT"},
  "host_scifi_banks": {"bank_type": "FTCluster"},
  "velo_banks": {"bank_type": "VP"},
  "ut_banks": {"bank_type": "UT"},
  "ut_search_windows": {"min_momentum": "1500.0", "min_pt": "300.0"},
  "compass_ut": {"min_momentum_final": "2500.0", "min_pt_final": "425.0", "max_considered_before_found": "6"},
  "scifi_banks": {"bank_type": "FTCluster"},
  "muon_banks": {"bank_type": "Muon"},
  "populate_odin_banks": {"bank_type": "ODIN"},
  "configured_lines": ["ErrorEvent", "PassThrough", "NoBeams", "BeamOne", "BeamTwo", "BothBeams", "ODINNoBias", "ODINLumi", "GECPassthrough", "VeloMicroBias", "TrackMVA", "TrackMuonMVA", "SingleHighPtMuon", "LowPtMuon", "TwoTrackMVA", "DiMuonHighMass", "DiMuonLowMass", "LowPtDiMuon", "DiMuonSoft", "D2KPi", "D2PiPi", "D2KK"]
}
